60235 88368 351
32517 75838 340
38071 74396 340
27665 85117 351
32589 35535 311
22670 77907 351
16489 42823 324
6304 21273 279
61775 68769 330
29469 58558 340
16464 59965 340
27901 39401 324
12804 78442 351
54152 87714 351
36796 37438 262
35033 65810 340
1292 15132 276
79707 81685 320
14493 98561 351
33628 47020 324
12426 18545 279
78849 81822 320
71455 88716 351
30281 30827 254
63452 63634 255
41375 54127 340
90009 99009 333
2990 88499 351
37225 52005 314
39088 88942 351
25084 93877 351
59909 88889 351
51381 70952 340
13963 70784 340
72284 79079 351
3023 64514 340
40046 42357 288
7258 7604 239
44435 48075 314
70880 73868 325
2291 36955 324
41460 88858 351
12792 37692 324
75625 76532 307
31512 34436 311
15805 87721 351
45036 95758 351
27392 33466 285
18021 84391 351
44824 71191 340
15890 93672 351
47539 59043 340
28768 43313 324
620 5918 238
17928 18760 261
29172 54502 340
52150 63412 340
51937 69664 340
65385 85385 351
14412 67161 340
16240 40629 324
53858 64685 335
59736 68407 335
28895 49270 324
48862 55917 340
50920 62887 340
71478 88451 351
48456 73747 340
60353 78464 351
548 67472 340
38509 73437 340
11716 38624 324
27563 67089 340
77908 82247 338
36510 55327 340
11784 41906 324
17524 73196 340
6997 7746 239
64469 92170 351
47311 66627 340
47083 98337 351
4554 76838 340
10009 98980 351
22030 47650 324
53973 62115 335
85135 94995 333
13166 84787 351
75365 79294 351
26649 35104 311
35688 94122 351
57722 60719 317
44413 58515 340
24871 28342 308
34418 64203 340
25921 50933 324
89458 95259 333
6228 47598 324
39388 55679 340
3926 55831 340
56189 67467 335
